<?xml version="1.0" encoding="UTF-8"?>
<svg width="11px" height="49px" viewBox="0 0 11 49" version="1.1" xmlns="http://www.w3.org/2000/svg" xmlns:xlink="http://www.w3.org/1999/xlink">
    <!-- Generator: Sketch 48.2 (47327) - http://www.bohemiancoding.com/sketch -->
    <title>cl</title>
    <desc>Created with Sketch.</desc>
    <defs></defs>
    <g id="Page-1" stroke="none" stroke-width="1" fill="none" fill-rule="evenodd">
        <g id="cl" fill="#7F2453" fill-rule="nonzero">
            <path d="M10,49 C7.3,48.7 5,47.6 3.1,45.7 C0,42.5 0,38.6 0,33.2 L0,16.3 C0,10.9 0,7 3.1,3.9 C5,2 7.3,0.9 10,0.6 L10,4.9 C8.7,5.2 7.5,5.9 6.7,6.8 C5.2,8.5 4.9,10.2 4.9,16.8 C4.9,17.1 4.9,33.4 4.9,33.7 C4.9,39.4 5.4,40.8 6,41.8 C6.3,42.4 6.7,42.7 6.8,42.8 C7.6,43.7 8.8,44.4 10.1,44.7 L10.1,49 L10,49 Z" id="Shape"></path>
        </g>
    </g>
</svg>